Dummy and Interactions
…
Dummy and Interactions

Tengyuan Liang

11/29/2018

# install.packages("readr")
library(readr)
MidCity <- read_csv("~/Github/Business_Statistics_41000/Lecture/Section5/MidCity.csv",col_types = cols(Nbhd = col_factor(levels = c("1", "2", "3"))))
# View(MidCity)
MidCity

## # A tibble: 128 x 8
##     Home Nbhd  Offers  SqFt Brick Bedrooms Bathrooms  Price
##    <dbl> <fct>  <dbl> <dbl> <chr>    <dbl>     <dbl>  <dbl>
##  1     1 2          2  1790 No           2         2 114300
##  2     2 2          3  2030 No           4         2 114200
##  3     3 2          1  1740 No           3         2 114800
##  4     4 2          3  1980 No           3         2  94700
##  5     5 2          3  2130 No           3         3 119800
##  6     6 1          2  1780 No           3         2 114600
##  7     7 3          3  1830 Yes          3         3 151600
##  8     8 3          2  2160 No           4         2 150700
##  9     9 2          3  2110 No           4         2 119200
## 10    10 2          3  1730 No           3         3 104000
## #  with 118 more rows
…
